{
   "rules":[
      {
         "id":1231725,
         "clientKey":"2b8495ab-fae8-32f2-98e1-dc999caa2345",
         "name":"NAVSRO  - Escalating jira to AbT engineering based on comment",
         "state":"ENABLED",
         "description":"This automation will create jira in Abstraction Tool project based on comment",
         "authorAccountId":"5c8bc12c9d7fc173a59546f0",
         "actor":{
            "type":"ACCOUNT_ID",
            "value":"557058:f58131cb-b67d-43c7-b30d-6b58d40bd077"
         },
         "created":1601901468879,
         "updated":1603278159527,
         "trigger":{
            "id":"24685818",
            "component":"TRIGGER",
            "parentId":null,
            "conditionParentId":null,
            "schemaVersion":1,
            "type":"jira.issue.event.trigger:commented",
            "value":{
               "eventKey":"jira:issue_updated",
               "issueEvent":"issue_commented"
            },
            "children":[

            ],
            "conditions":[

            ]
         },
         "components":[
            {
               "id":"24685819",
               "component":"CONDITION",
               "parentId":null,
               "conditionParentId":null,
               "schemaVersion":3,
               "type":"jira.issue.condition",
               "value":{
                  "selectedField":{
                     "type":"ID",
                     "value":"issuetype"
                  },
                  "selectedFieldType":"issuetype",
                  "comparison":"ONE_OF",
                  "compareValue":{
                     "type":"ID",
                     "modifier":null,
                     "value":"[\"10047\"]",
                     "multiValue":true,
                     "source":null
                  }
               },
               "children":[

               ],
               "conditions":[

               ]
            },
            {
               "id":"24685820",
               "component":"CONDITION",
               "parentId":null,
               "conditionParentId":null,
               "schemaVersion":1,
               "type":"jira.comparator.condition",
               "value":{
                  "first":"{{issue.status.name}}",
                  "second":"Analysis",
                  "operator":"EQUALS"
               },
               "children":[

               ],
               "conditions":[

               ]
            },
            {
               "id":"24685821",
               "component":"CONDITION",
               "parentId":null,
               "conditionParentId":null,
               "schemaVersion":1,
               "type":"jira.condition.container.block",
               "value":null,
               "children":[
                  {
                     "id":"24685822",
                     "component":"CONDITION_BLOCK",
                     "parentId":"24685821",
                     "conditionParentId":null,
                     "schemaVersion":1,
                     "type":"jira.condition.if.block",
                     "value":{
                        "conditionMatchType":"ALL"
                     },
                     "children":[
                        {
                           "id":"24685824",
                           "component":"ACTION",
                           "parentId":"24685822",
                           "conditionParentId":null,
                           "schemaVersion":10,
                           "type":"jira.issue.transition",
                           "value":{
                              "operations":[

                              ],
                              "advancedFields":null,
                              "sendNotifications":true,
                              "useLegacyRendering":false,
                              "destinationStatus":{
                                 "type":"ID",
                                 "value":"10098"
                              },
                              "transitionMatch":""
                           },
                           "children":[

                           ],
                           "conditions":[

                           ]
                        },
                        {
                           "id":"24685825",
                           "component":"ACTION",
                           "parentId":"24685822",
                           "conditionParentId":null,
                           "schemaVersion":10,
                           "type":"jira.issue.create",
                           "value":{
                              "operations":[
                                 {
                                    "field":{
                                       "type":"ID",
                                       "value":"summary"
                                    },
                                    "fieldType":"summary",
                                    "type":"COPY",
                                    "value":{
                                       "copyOptions":[

                                       ],
                                       "sourceIssue":"current",
                                       "sourceField":{
                                          "type":"ID",
                                          "value":"summary",
                                          "fieldType":"summary"
                                       }
                                    }
                                 },
                                 {
                                    "field":{
                                       "type":"ID",
                                       "value":"project"
                                    },
                                    "fieldType":"project",
                                    "type":"SET",
                                    "value":{
                                       "type":"ID",
                                       "value":"10111"
                                    }
                                 },
                                 {
                                    "field":{
                                       "type":"ID",
                                       "value":"issuetype"
                                    },
                                    "fieldType":"issuetype",
                                    "type":"SET",
                                    "value":{
                                       "type":"ID",
                                       "value":"10075"
                                    }
                                 },
                                 {
                                    "field":{
                                       "type":"ID",
                                       "value":"priority"
                                    },
                                    "fieldType":"priority",
                                    "type":"COPY",
                                    "value":{
                                       "copyOptions":[

                                       ],
                                       "sourceIssue":"current",
                                       "sourceField":{
                                          "type":"ID",
                                          "value":"priority",
                                          "fieldType":"priority"
                                       }
                                    }
                                 },
                                 {
                                    "field":{
                                       "type":"ID",
                                       "value":"reporter"
                                    },
                                    "fieldType":"reporter",
                                    "type":"SET",
                                    "value":{
                                       "type":"ID",
                                       "value":"5d888e6cc26b6a0dcb0c86a2"
                                    }
                                 },
                                 {
                                    "field":{
                                       "type":"ID",
                                       "value":"labels"
                                    },
                                    "fieldType":"labels",
                                    "type":"SET",
                                    "value":[
                                       {
                                          "type":"NAME",
                                          "value":"customer_issue"
                                       },
                                       {
                                          "type":"NAME",
                                          "value":"production_issue"
                                       }
                                    ]
                                 },
                                 {
                                    "field":{
                                       "type":"ID",
                                       "value":"customfield_10235"
                                    },
                                    "fieldType":"com.atlassian.jira.plugin.system.customfieldtypes:multiselect",
                                    "type":"SET",
                                    "value":[
                                       {
                                          "type":"NAME",
                                          "value":"Production"
                                       }
                                    ]
                                 },
                                 {
                                    "field":{
                                       "type":"ID",
                                       "value":"issuelinks"
                                    },
                                    "fieldType":"issuelinks",
                                    "type":"SET",
                                    "value":{
                                       "issue":{
                                          "type":"COPY",
                                          "value":"trigger"
                                       },
                                       "linkType":"outward:10000"
                                    }
                                 },
                                 {
                                    "field":{
                                       "type":"ID",
                                       "value":"customfield_10224"
                                    },
                                    "fieldType":"com.atlassian.jira.plugin.system.customfieldtypes:textarea",
                                    "type":"COPY",
                                    "value":{
                                       "copyOptions":[

                                       ],
                                       "sourceIssue":"current",
                                       "sourceField":{
                                          "type":"ID",
                                          "value":"customfield_10224",
                                          "fieldType":"com.atlassian.jira.plugin.system.customfieldtypes:textarea"
                                       }
                                    }
                                 },
                                 {
                                    "field":{
                                       "type":"ID",
                                       "value":"customfield_10231"
                                    },
                                    "fieldType":"com.atlassian.jira.plugin.system.customfieldtypes:textarea",
                                    "type":"COPY",
                                    "value":{
                                       "copyOptions":[

                                       ],
                                       "sourceIssue":"current",
                                       "sourceField":{
                                          "type":"ID",
                                          "value":"customfield_10231",
                                          "fieldType":"com.atlassian.jira.plugin.system.customfieldtypes:textarea"
                                       }
                                    }
                                 },
                                 {
                                    "field":{
                                       "type":"ID",
                                       "value":"customfield_10273"
                                    },
                                    "fieldType":"com.atlassian.jira.plugin.system.customfieldtypes:textarea",
                                    "type":"COPY",
                                    "value":{
                                       "copyOptions":[

                                       ],
                                       "sourceIssue":"current",
                                       "sourceField":{
                                          "type":"ID",
                                          "value":"customfield_10273",
                                          "fieldType":"com.atlassian.jira.plugin.system.customfieldtypes:textarea"
                                       }
                                    }
                                 },
                                 {
                                    "field":{
                                       "type":"ID",
                                       "value":"customfield_10248"
                                    },
                                    "fieldType":"com.atlassian.jira.plugin.system.customfieldtypes:select",
                                    "type":"COPY",
                                    "value":{
                                       "copyOptions":[

                                       ],
                                       "sourceIssue":"current",
                                       "sourceField":{
                                          "type":"ID",
                                          "value":"customfield_10248",
                                          "fieldType":"com.atlassian.jira.plugin.system.customfieldtypes:select"
                                       }
                                    }
                                 },
                                 {
                                    "field":{
                                       "type":"ID",
                                       "value":"customfield_10249"
                                    },
                                    "fieldType":"com.atlassian.jira.plugin.system.customfieldtypes:textfield",
                                    "type":"COPY",
                                    "value":{
                                       "copyOptions":[

                                       ],
                                       "sourceIssue":"current",
                                       "sourceField":{
                                          "type":"ID",
                                          "value":"customfield_10249",
                                          "fieldType":"com.atlassian.jira.plugin.system.customfieldtypes:textfield"
                                       }
                                    }
                                 },
                                 {
                                    "field":{
                                       "type":"ID",
                                       "value":"customfield_10341"
                                    },
                                    "fieldType":"com.atlassian.jira.plugin.system.customfieldtypes:multiselect",
                                    "type":"COPY",
                                    "value":{
                                       "copyOptions":[

                                       ],
                                       "sourceIssue":"current",
                                       "sourceField":{
                                          "type":"ID",
                                          "value":"customfield_10341",
                                          "fieldType":"com.atlassian.jira.plugin.system.customfieldtypes:multiselect"
                                       }
                                    }
                                 },
                                 {
                                    "field":{
                                       "type":"ID",
                                       "value":"customfield_10216"
                                    },
                                    "fieldType":"com.atlassian.jira.plugin.system.customfieldtypes:textfield",
                                    "type":"COPY",
                                    "value":{
                                       "copyOptions":[

                                       ],
                                       "sourceIssue":"current",
                                       "sourceField":{
                                          "type":"ID",
                                          "value":"customfield_10216",
                                          "fieldType":"com.atlassian.jira.plugin.system.customfieldtypes:textfield"
                                       }
                                    }
                                 }
                              ],
                              "advancedFields":"{\n\t\"update\": {\n\t\t\"description\": [{\n\t\t\t\"set\": \"{{issue.description}} \\n \\n CC: [~accountid:5dc35bc1ab9cbc0deb4b7430] [~accountid:557058:44e25e0e-9dcd-40be-be9f-5b503343c16d]\"\n\t\t}]\n\t}\n}",
                              "sendNotifications":false,
                              "useLegacyRendering":false
                           },
                           "children":[

                           ],
                           "conditions":[

                           ]
                        }
                     ],
                     "conditions":[
                        {
                           "id":"24685823",
                           "component":"CONDITION",
                           "parentId":null,
                           "conditionParentId":"24685822",
                           "schemaVersion":1,
                           "type":"jira.comparator.condition",
                           "value":{
                              "first":"{{comment.body}}",
                              "second":"(^ABT$|^ABT(\\n)*.This\\scomment\\swas\\sleft\\svia\\sSlack..$)",
                              "operator":"REGEX_MATCHES"
                           },
                           "children":[

                           ],
                           "conditions":[

                           ]
                        }
                     ]
                  }
               ],
               "conditions":[

               ]
            }
         ],
         "canOtherRuleTrigger":false,
         "notifyOnError":"FIRSTERROR",
         "projects":[
            {
               "projectId":"10071",
               "projectTypeKey":"service_desk"
            }
         ],
         "labels":[
            18901
         ],
         "tags":[

         ]
      }
   ],
   "cloud":true
}