{
   "rules":[
      {
         "id":1231334,
         "clientKey":"2b8495ab-fae8-32f2-98e1-dc999caa2345",
         "name":"NAVSRO - SLA soon to be breached - ",
         "state":"ENABLED",
         "description":"This rule will sent out notifications should an SLA be breached to products",
         "authorAccountId":"5c8bc12c9d7fc173a59546f0",
         "actor":{
            "type":"ACCOUNT_ID",
            "value":"557058:f58131cb-b67d-43c7-b30d-6b58d40bd077"
         },
         "created":1601895791664,
         "updated":1601895791664,
         "trigger":{
            "id":"23360912",
            "component":"TRIGGER",
            "parentId":null,
            "conditionParentId":null,
            "schemaVersion":1,
            "type":"jira.sla.threshold.trigger",
            "value":{
               "customFieldId":"customfield_10348",
               "thresholdType":"WILL_BREACH",
               "thresholdValue":86400000
            },
            "children":[

            ],
            "conditions":[

            ]
         },
         "components":[
            {
               "id":"23360913",
               "component":"CONDITION",
               "parentId":null,
               "conditionParentId":null,
               "schemaVersion":3,
               "type":"jira.issue.condition",
               "value":{
                  "selectedField":{
                     "type":"ID",
                     "value":"components"
                  },
                  "selectedFieldType":"components",
                  "comparison":"CONTAINS_ANY",
                  "compareValue":{
                     "type":"NAME",
                     "modifier":null,
                     "value":"[\"Abstraction Tool\"]",
                     "multiValue":true,
                     "source":null
                  }
               },
               "children":[

               ],
               "conditions":[

               ]
            },
            {
               "id":"23360914",
               "component":"ACTION",
               "parentId":null,
               "conditionParentId":null,
               "schemaVersion":3,
               "type":"jira.issue.outgoing.email",
               "value":{
                  "from":"",
                  "fromName":"NAVSRO SD",
                  "replyTo":"",
                  "to":[
                     {
                        "type":"REFERENCE",
                        "value":"NAVSROSD-SLA-Notification-AbstractionTool",
                        "additional":"GROUP"
                     }
                  ],
                  "cc":[

                  ],
                  "bcc":[

                  ],
                  "subject":"Warning: SLA for ticket {{issue.key}} to be breached in 24h.",
                  "body":"Hello,\nYou are receiving this email as  {{issue.key}} has 24h before breaching the MTTRCS SLA.\n\nPlease proceed with updating {{issue.key}} ticket with the latest update.\n\n{{issue.url}}\n\nThanks\nSRO team\n\nPlease do not reply to this message.",
                  "mimeType":"text/html",
                  "convertLineBreaks":true
               },
               "children":[

               ],
               "conditions":[

               ]
            }
         ],
         "canOtherRuleTrigger":false,
         "notifyOnError":"FIRSTERROR",
         "projects":[
            {
               "projectId":"10071",
               "projectTypeKey":"service_desk"
            }
         ],
         "labels":[
            18901
         ],
         "tags":[
            {
               "id":787107,
               "tagType":"POLLING",
               "tagValue":null
            }
         ]
      }
   ],
   "cloud":true
}